<?xml version="1.0" encoding="UTF-8"?>
<session version="1.0">
<refactoring comment="Delete resource &apos;AI_Project1_StoneAgeRun&apos;" deleteContents="true" description="Delete resource &apos;AI_Project1_StoneAgeRun&apos;" element1="/AI_Project1_StoneAgeRun" flags="7" id="org.eclipse.ltk.core.refactoring.delete.resources" resources="1" stamp="1594740458179"/>
</session>